[gd_scene load_steps=3 format=2]

[ext_resource path="res://assets/ruins/clocktower_plateau_ruin.png" type="Texture" id=1]
[ext_resource path="res://assets/ruins/clocktower_ruin.png" type="Texture" id=2]

[node name="ClocktowerPlateau" type="StaticBody2D"]
position = Vector2( 2093, 618.388 )

[node name="Sprite" type="Sprite" parent="."]
position = Vector2( 51.9927, -387.446 )
scale = Vector2( 0.8, 1 )
texture = ExtResource( 1 )

[node name="CollisionPolygon2D" type="CollisionPolygon2D" parent="."]
position = Vector2( -2202.27, -918.2 )
polygon = PoolVector2Array( 1874.03, 652.605, 1768.2, 808.835, 1778.66, 1366.44, 1815.53, 1410.44, 2006.7, 1414.14, 2012.31, 1494.96, 2015.68, 1536.49, 2038.13, 1555.57, 2090.88, 1560.06, 2109.96, 1554.45, 2106.6, 1233.43, 1904.55, 1233.43, 1875.37, 1218.83, 1869.76, 1189.65, 1876.5, 705.868, 1891.09, 660.97, 2509.56, 655.357, 2537.62, 671.072, 2537.63, 1214.34, 2521.91, 1232.3, 2301.91, 1233.43, 2297.42, 1557.82, 2352.42, 1566.8, 2388.34, 1545.47, 2397.32, 1509.55, 2399.56, 1419.75, 2594.87, 1411.9, 2629.67, 1364.75, 2635.28, 793.42, 2555.58, 665.46, 2549.97, 636.276, 2523.03, 628.418, 2516.3, 620.561, 1901.19, 627.296 )

[node name="Clocktower" type="StaticBody2D" parent="."]
position = Vector2( 14.895, 30.0688 )

[node name="Sprite2" type="Sprite" parent="Clocktower"]
position = Vector2( 46.8677, -965.977 )
scale = Vector2( 0.8, 0.8 )
texture = ExtResource( 2 )

[node name="CollisionPolygon2D" type="CollisionPolygon2D" parent="Clocktower"]
polygon = PoolVector2Array( -237.907, 99.0938, -244.257, -331.092, -242.669, -327.917, -244.257, -327.917, -242.669, -326.33, 227.495, -325.842, 223.257, 103.241, -125.202, 105.443, -126.79, 124.492, -199.81, 121.317, -199.81, 103.856 )
