[gd_scene format=2]

[node name="Ground_old" type="ColorRect"]
margin_left = -2531.94
margin_top = -2806.92
margin_right = 8498.06
margin_bottom = 4489.08
color = Color( 0.803922, 0.768627, 0.729412, 1 )
__meta__ = {
"_edit_use_anchors_": false
}
