[gd_scene load_steps=4 format=2]

[ext_resource path="res://dialog/dialog.gd" type="Script" id=1]
[ext_resource path="res://dialog/dialog_theme.tres" type="Theme" id=2]
[ext_resource path="res://assets/UI/scroll-hg.png" type="Texture" id=3]

[node name="Dialog" type="CanvasLayer"]
pause_mode = 2
script = ExtResource( 1 )

[node name="PopupDialog" type="PopupDialog" parent="."]
margin_left = 5.0
margin_top = 660.0
margin_right = 1926.0
margin_bottom = 1076.0
theme = ExtResource( 2 )
popup_exclusive = true
__meta__ = {
"_edit_use_anchors_": false
}

[node name="scroll-hg" type="Sprite" parent="PopupDialog"]
position = Vector2( 959.249, 210.468 )
scale = Vector2( 1.08004, 1.08004 )
texture = ExtResource( 3 )

[node name="RichTextLabel" type="RichTextLabel" parent="PopupDialog"]
margin_left = 180.0
margin_top = 53.0976
margin_right = 1780.0
margin_bottom = 253.098
bbcode_enabled = true
__meta__ = {
"_edit_use_anchors_": false
}

[node name="FirstButton" type="Button" parent="PopupDialog"]
visible = false
margin_left = 180.0
margin_top = 253.098
margin_right = 1780.0
margin_bottom = 313.098
mouse_default_cursor_shape = 2
__meta__ = {
"_edit_use_anchors_": false
}

[node name="SecondButton" type="Button" parent="PopupDialog"]
visible = false
margin_left = 180.0
margin_top = 313.098
margin_right = 1780.0
margin_bottom = 373.098
mouse_default_cursor_shape = 2
__meta__ = {
"_edit_use_anchors_": false
}
[connection signal="about_to_show" from="PopupDialog" to="." method="_on_PopupDialog_about_to_show"]
[connection signal="popup_hide" from="PopupDialog" to="." method="_on_PopupDialog_popup_hide"]
[connection signal="pressed" from="PopupDialog/FirstButton" to="." method="_on_FirstButton_pressed"]
[connection signal="pressed" from="PopupDialog/SecondButton" to="." method="_on_SecondButton_pressed"]
