[gd_resource type="DynamicFont" load_steps=2 format=2]

[ext_resource path="res://fonts/Merienda/Merienda-Regular.ttf" type="DynamicFontData" id=1]

[resource]
size = 31
extra_spacing_top = 12
font_data = ExtResource( 1 )
