[gd_scene load_steps=4 format=2]

[ext_resource path="res://music/water.ogg" type="AudioStream" id=1]
[ext_resource path="res://music/music.tscn" type="PackedScene" id=2]

[sub_resource type="StyleBoxFlat" id=1]
bg_color = Color( 0, 0.392157, 1, 1 )

[node name="River" type="YSort"]

[node name="Bridge" type="Node2D" parent="."]
position = Vector2( -2.03613, 384.868 )

[node name="ColorRect" type="ColorRect" parent="Bridge"]
light_mask = 2
margin_left = 0.918945
margin_top = 1830.57
margin_right = 1038.92
margin_bottom = 1934.57
color = Color( 0.596078, 0.372549, 0.309804, 1 )
__meta__ = {
"_edit_use_anchors_": false
}

[node name="ColorRect3" type="ColorRect" parent="Bridge"]
light_mask = 2
margin_left = 944.988
margin_top = 1373.95
margin_right = 1982.99
margin_bottom = 1477.95
color = Color( 0.596078, 0.372549, 0.309804, 1 )
__meta__ = {
"_edit_use_anchors_": false
}

[node name="ColorRect2" type="ColorRect" parent="Bridge"]
light_mask = 2
margin_left = 940.0
margin_top = 1377.0
margin_right = 1043.0
margin_bottom = 1932.0
color = Color( 0.596078, 0.372549, 0.309804, 1 )
__meta__ = {
"_edit_use_anchors_": false
}

[node name="StaticBody2D" type="StaticBody2D" parent="Bridge"]

[node name="CollisionPolygon2D" type="CollisionPolygon2D" parent="Bridge/StaticBody2D"]
polygon = PoolVector2Array( 3.91577, 1833.79, 4.15698, -384.738, 1985.47, -384.738, 1982.42, 1375.1, 1044.05, 1375.76, 949.125, 1373.2, 938.863, 1827.32 )

[node name="CollisionPolygon2D2" type="CollisionPolygon2D" parent="Bridge/StaticBody2D"]
position = Vector2( 99.9463, 103.791 )
polygon = PoolVector2Array( -94.6035, 1831.08, -106.057, 2442.33, 1868.8, 2456.04, 1877.94, 1372.62, 949.125, 1373.2, 938.863, 1827.32 )

[node name="WaterMusic" parent="." instance=ExtResource( 2 )]
pause_mode = 2
position = Vector2( 314.29, 1580.43 )
stream = ExtResource( 1 )

[node name="Panel" type="Panel" parent="."]
margin_left = -179.0
margin_top = -233.0
margin_right = 2070.0
margin_bottom = 3031.0
custom_styles/panel = SubResource( 1 )
__meta__ = {
"_edit_use_anchors_": false
}
