[gd_scene load_steps=9 format=2]

[ext_resource path="res://assets/woods/city_tree1.png" type="Texture" id=1]
[ext_resource path="res://assets/woods/bridge2.png" type="Texture" id=2]
[ext_resource path="res://assets/woods/ladder1.png" type="Texture" id=3]
[ext_resource path="res://assets/woods/city_tree2.png" type="Texture" id=4]
[ext_resource path="res://assets/woods/ladder2.png" type="Texture" id=5]
[ext_resource path="res://assets/woods/bridge1.png" type="Texture" id=6]
[ext_resource path="res://assets/woods/city_tree_big.png" type="Texture" id=7]
[ext_resource path="res://assets/woods/ladder3.png" type="Texture" id=8]

[node name="TreeGroup" type="Node2D"]
position = Vector2( 3454.62, 811.904 )
__meta__ = {
"_edit_group_": true
}

[node name="CityTreeBig" type="Sprite" parent="."]
position = Vector2( 5.03955, -10.0793 )
texture = ExtResource( 7 )

[node name="CityTree3" type="StaticBody2D" parent="."]
position = Vector2( -1075.34, 298.523 )
scale = Vector2( 0.5, 0.5 )

[node name="CollisionPolygon2D" type="CollisionPolygon2D" parent="CityTree3"]
polygon = PoolVector2Array( -468.296, 1096.83, -323.499, 1047.44, -205.64, 959.891, -156.252, 849.89, -159.619, 453.661, -296.559, 393.048, -562.582, 345.905, -655.747, 301.006, -661.359, 234.781, -906.92, -557.349, -610.271, -1008.68, 37.9688, -1129.38, -128.341, -1779.5, 68.2065, -2510.25, 4241.07, -2333.87, 4331.42, -1813.78, 4180.59, -1204.98, 3751.72, -718.445, 3099.09, -540.395, 3103.94, -265.634, 2866.69, -0.92627, 2862.38, 408.985, 2872.47, 1008.96, 2798.2, 1052.65, 2788.67, 478.008, 2793.71, -124.232, 2901.19, -158.173, 3033.13, -280.77, 2852.17, -331.567, 2512.45, -348.229, 2312.14, -297.578, 2350.23, -167.411, 2528.34, -112.505, 2574.51, -118.575, 2579.14, 125.605, 2575.96, 868.509, 2575.96, 1059, 2315.63, 1020.9, 2153.71, 957.403, 2150.54, 585.951, 2264.83, 589.126, 2445.79, 547.854, 2521.99, 452.61, 2493.42, 363.715, 2274.35, 322.443, 1810.83, 335.142, 1420.33, 233.548, 1274.29, 119.255, 1102.85, 100.206, 979.035, 122.43, 832.994, 185.926, 667.904, 220.849, 413.919, 192.276, 191.683, 154.178, 115.488, 128.78, -80.6206, 125.017, -138.496, 106.556, -260.649, 95.2799, -497.969, 141.896, -593.32, 160.967, -583.909, 293.149, -168.598, 306.618, -109.129, 345.96, -113.051, 1099.53, -156.25, 1133.87, -244.925, 1138.36, -206.761, 1091.22, -335.844, 1121.53, -435.743, 1115.91 )

[node name="CollisionPolygon2D2" type="CollisionPolygon2D" parent="CityTree3"]
polygon = PoolVector2Array( 417.095, 366.89, 706.002, 389.114, 975.86, 354.191, 1229.84, 325.617, 1636.22, 503.406, 1814.01, 500.232, 1956.87, 576.427, 1947.35, 963.753, 1671.14, 1062.17, 1388.58, 1059, 1115.55, 1033.6, 744.1, 1093.92, 575.835, 1122.49, 185.094, 1141.48, 134.949, 1095.53, 110.758, 307.411 )

[node name="CityTree" type="Sprite" parent="CityTree3"]
texture = ExtResource( 1 )

[node name="CityTree2" type="Sprite" parent="."]
position = Vector2( -519.913, 313.146 )
scale = Vector2( 0.5, 0.5 )
texture = ExtResource( 4 )

[node name="Bridge2" type="Sprite" parent="."]
position = Vector2( -310.277, 458.643 )
scale = Vector2( 0.5, 0.5 )
texture = ExtResource( 2 )

[node name="Bridge1" type="Sprite" parent="."]
position = Vector2( -760.933, 425.586 )
scale = Vector2( 0.5, 0.5 )
texture = ExtResource( 6 )

[node name="Ledder3" type="Sprite" parent="."]
position = Vector2( 262.243, 563.091 )
scale = Vector2( 0.5, 0.5 )
texture = ExtResource( 8 )

[node name="Ledder2" type="Sprite" parent="."]
position = Vector2( -45.3777, 719.479 )
scale = Vector2( 0.5, 0.5 )
texture = ExtResource( 3 )

[node name="Ledder1" type="Sprite" parent="."]
position = Vector2( -1074.5, 685.353 )
scale = Vector2( 0.5, 0.5 )
texture = ExtResource( 5 )
